<?xml version="1.0" encoding="UTF-8"?>
<svg width="108px" height="108px" viewBox="0 0 108 108" version="1.1" xmlns="http://www.w3.org/2000/svg" xmlns:xlink="http://www.w3.org/1999/xlink">
    <title>Group 26</title>
    <g id="Page-3" stroke="none" stroke-width="1" fill="none" fill-rule="evenodd">
        <g id="07_Competition_2nd-year" transform="translate(-246.000000, -1252.000000)">
            <g id="Group-26" transform="translate(246.000000, 1252.000000)">
                <path d="M18.72,0 L108,0 L108,0 L108,89.28 C108,99.6187705 99.6187705,108 89.28,108 L0,108 L0,108 L0,18.72 C-1.26613422e-15,8.38122948 8.38122948,1.89920133e-15 18.72,0 Z" id="Rectangle-Copy-20" fill="#F3FAF7"></path>
                <g id="save" transform="translate(55.000000, 57.000000) scale(-1, 1) translate(-55.000000, -57.000000) translate(20.000000, 22.000000)" fill-rule="nonzero">
                    <path d="M67.5967578,30.6761036 C66.7957227,29.8631861 65.4978516,29.8631861 64.6968164,30.6761036 C63.8957812,31.4890211 63.8957813,32.8061445 64.6968164,33.619062 C65.471875,34.4056176 65.8984375,35.4502423 65.8984375,36.5620205 C65.8984375,38.8566151 63.9212109,40.7244246 61.6601562,40.7244246 L61.565,40.7244246 C61.5629492,40.7018088 61.565957,40.6800256 61.564043,40.6574098 C60.7191211,31.2727148 54.0315234,23.7062967 45.1430273,21.0257084 C44.5779687,27.3833645 39.3585937,32.3996164 32.9492188,32.3996164 C26.2968945,32.3996164 20.8943164,27.0061119 20.6837695,20.3061675 C17.9843945,17.4457634 14.2795898,15.75 10.390625,15.75 C9.78783203,15.75 9.21498047,16.0183363 8.8265625,16.4857743 C8.43609375,16.9532123 8.26779297,17.5710518 8.36800781,18.1726579 L9.92414063,27.641711 C7.62904297,30.2391899 5.96873047,33.326445 5.05353516,36.6880026 C2.25162109,37.2712941 0,39.791491 0,42.8056266 L0,46.9680307 C0,50.4108939 2.89652344,53.2116368 6.2890625,53.2116368 C6.383125,53.2116368 6.47732422,53.205532 6.56947266,53.1933223 C6.60953125,53.1954035 6.64958984,53.1954035 6.69169922,53.1973459 C8.09347656,55.9858792 10.0541602,58.4654233 12.4414062,60.4674009 L12.4414062,67.918798 C12.4414062,69.0691477 13.3586523,70 14.4921875,70 L22.6953125,70 C23.8288477,70 24.7460938,69.0691477 24.7460938,67.918798 L24.7460938,65.4907289 C25.4317383,65.5539974 26.1089062,65.6988491 26.796875,65.6988491 L37.0507812,65.6988491 L37.0507812,67.918798 C37.0507812,69.0691477 37.9680273,70 39.1015625,70 L47.3046875,70 C48.4382227,70 49.3554688,69.0691477 49.3554688,67.918798 L49.3554688,63.2030716 C56.300918,59.6071707 60.8145508,52.6565109 61.52125,44.8868286 L61.6601562,44.8868286 C66.1843164,44.8868286 70,41.1532909 70,36.5620205 C70,34.3386029 69.146875,32.2492148 67.5967578,30.6761036 Z M14.4921875,40.7244246 C13.3596094,40.7244246 12.4414062,39.792601 12.4414062,38.6432225 C12.4414062,37.4935665 13.3596094,36.5620205 14.4921875,36.5620205 C15.6247656,36.5620205 16.5429688,37.4935665 16.5429688,38.6432225 C16.5429688,39.792601 15.6247656,40.7244246 14.4921875,40.7244246 Z M39.1015625,40.7244246 L26.796875,40.7244246 C25.6633398,40.7244246 24.7460938,39.7935723 24.7460938,38.6432225 C24.7460938,37.4928728 25.6633398,36.5620205 26.796875,36.5620205 L39.1015625,36.5620205 C40.2350977,36.5620205 41.1523438,37.4928728 41.1523438,38.6432225 C41.1523438,39.7935723 40.2350977,40.7244246 39.1015625,40.7244246 Z" id="Shape" fill="#13AA5F"></path>
                    <path d="M33.25,13.125 C28.9068062,13.125 25.375,16.6568062 25.375,21 C25.375,25.3431938 28.9068062,28.875 33.25,28.875 C37.5931937,28.875 41.125,25.3431938 41.125,21 C41.125,16.6568062 37.5931937,13.125 33.25,13.125 Z" id="Path" fill="#16424B"></path>
                    <path d="M49,0 C44.6568063,0 41.125,3.53180625 41.125,7.875 C41.125,12.2181938 44.6568063,15.75 49,15.75 C53.3431937,15.75 56.875,12.2181938 56.875,7.875 C56.875,3.53180625 53.3431937,0 49,0 Z" id="Path" fill="#16424B"></path>
                </g>
            </g>
        </g>
    </g>
</svg>