<?xml version="1.0" encoding="UTF-8"?>
<svg width="110px" height="110px" viewBox="0 0 110 110" version="1.1" xmlns="http://www.w3.org/2000/svg" xmlns:xlink="http://www.w3.org/1999/xlink">
    <title>Group 23</title>
    <g id="Page-3" stroke="none" stroke-width="1" fill="none" fill-rule="evenodd">
        <g id="07_Competition_2nd-year" transform="translate(-629.000000, -986.000000)">
            <g id="Group-23" transform="translate(629.000000, 986.000000)">
                <path d="M19.2,0 L110,0 L110,0 L110,90.8 C110,101.403867 101.403867,110 90.8,110 L0,110 L0,110 L0,19.2 C-1.2985992e-15,8.5961328 8.5961328,9.05332616e-15 19.2,0 Z" id="Rectangle-Copy-22" fill="#F3FAF7"></path>
                <g id="business-(2)-2" transform="translate(21.000000, 26.000000)" fill-rule="nonzero">
                    <g id="business-(2)">
                        <polygon id="Path" fill="#16424B" points="26.7871094 30.5066667 38.2128906 30.5066667 38.2128906 34.32 26.7871094 34.32"></polygon>
                        <path d="M52.7336502,34.32 L42.0214844,34.32 L42.0214844,36.2266667 C42.0214844,37.2802985 41.1695098,38.1333333 40.1171875,38.1333333 L24.8828125,38.1333333 C23.8304902,38.1333333 22.9785156,37.2802985 22.9785156,36.2266667 L22.9785156,34.32 L12.2663498,34.32 C9.80415338,34.32 7.62660983,32.7484896 6.8470383,30.4098437 L0,9.83969094 L0,51.48 C0,54.6339444 2.56286621,57.2 5.71289062,57.2 L59.2871094,57.2 C62.4371338,57.2 65,54.6339444 65,51.48 L65,9.84118056 L58.1524658,30.4098437 C57.3733902,32.7484896 55.1958466,34.32 52.7336502,34.32 Z" id="Path" fill="#24AC69"></path>
                        <path d="M40.1171875,0 L24.8828125,0 C21.7327881,0 19.1699219,2.56605556 19.1699219,5.72 L19.1699219,7.62666667 L3.27648166,7.62666667 L10.4587554,29.2032813 C10.7191086,29.9833263 11.4461136,30.5066667 12.2663498,30.5066667 L22.9785156,30.5066667 L22.9785156,28.6 C22.9785156,27.5463681 23.8304902,26.6933333 24.8828125,26.6933333 L40.1171875,26.6933333 C41.1695098,26.6933333 42.0214844,27.5463681 42.0214844,28.6 L42.0214844,30.5066667 L52.7336502,30.5066667 C53.5538864,30.5066667 54.2808914,29.9833263 54.5412446,29.2032813 L61.7240142,7.62666667 L45.8300781,7.62666667 L45.8300781,5.72 C45.8300781,2.56605556 43.2672119,0 40.1171875,0 Z M22.9785156,7.62666667 L22.9785156,5.72 C22.9785156,4.66785761 23.8319778,3.81333333 24.8828125,3.81333333 L40.1171875,3.81333333 C41.1680222,3.81333333 42.0214844,4.66785761 42.0214844,5.72 L42.0214844,7.62666667 L22.9785156,7.62666667 Z" id="Shape" fill="#16424B"></path>
                    </g>
                </g>
            </g>
        </g>
    </g>
</svg>