<?xml version="1.0" encoding="UTF-8"?>
<svg width="109px" height="25px" viewBox="0 0 109 25" version="1.1" xmlns="http://www.w3.org/2000/svg" xmlns:xlink="http://www.w3.org/1999/xlink">
    <title>pinnacle-agriculture</title>
    <g id="Page-3" stroke="none" stroke-width="1" fill="none" fill-rule="evenodd">
        <g id="pinnacle-agriculture" transform="translate(0.100000, 0.600000)" fill-rule="nonzero">
            <path d="M16.75728,22.68432 C17.26704,21.66048 17.55648,20.52 17.55648,19.31472 C17.55648,14.84784 13.62528,11.22768 8.77824,11.22768 C3.9312,11.22768 0,14.84784 0,19.31472 C0,20.52 0.28944,21.65616 0.7992,22.68432 L16.75728,22.68432 Z" id="Path" fill="#FFDE76"></path>
            <path d="M6.3936,23.42736 C6.3936,23.42736 7.16688,24.26112 9.44784,22.48128 C10.67904,21.51792 11.33136,19.91088 12.9816,17.82 C15.05088,15.19344 16.90416,13.82832 18.34704,12.90816 C21.4704,10.91664 4.73472,17.57376 6.3936,23.42736" id="Path" fill="#025C43"></path>
            <path d="M7.24032,22.32144 C7.24032,22.32144 7.04592,22.92192 7.7112,22.58928 C8.37648,22.25232 8.22528,22.0752 8.88624,20.29968 C9.55152,18.52416 10.70496,15.90624 9.77184,11.86272 C8.83872,7.8192 7.54704,6.5664 5.41728,2.04336 C1.55088,-6.18192 8.93376,12.43296 7.24032,22.32144" id="Path" fill="#76AE99"></path>
            <path d="M27.70416,12.25584 L23.5872,12.25584 L23.5872,14.20848 L27.70416,14.20848 C27.98928,14.20848 28.188,14.17824 28.30032,14.12208 C28.45584,14.03568 28.52928,13.87152 28.52928,13.62528 L28.52928,12.83904 C28.52928,12.5928 28.45584,12.42432 28.30032,12.34224 C28.188,12.28176 27.98928,12.25584 27.70416,12.25584 M21.78576,18.26928 L21.78576,11.02032 L28.52496,11.02032 C29.70432,11.02032 30.29184,11.4912 30.29184,12.42432 L30.29184,14.04 C30.29184,14.97744 29.7,15.444 28.52496,15.444 L23.5872,15.444 L23.5872,18.26928 L21.78576,18.26928 L21.78576,18.26928 Z M33.11712,11.02032 L34.94448,11.02032 L34.94448,18.26928 L33.11712,18.26928 L33.11712,11.02032 Z M38.95776,18.26928 L38.95776,11.02032 L40.21056,11.02032 L45.74448,15.2928 C46.14192,15.60384 46.44,15.86736 46.64304,16.07904 C46.5912,15.40512 46.5696,14.9904 46.5696,14.83056 L46.5696,11.02032 L48.21552,11.02032 L48.21552,18.26928 L46.96704,18.26928 L41.18256,13.78944 C40.94928,13.61232 40.72896,13.4136 40.52592,13.1976 C40.57776,13.66416 40.60368,14.05296 40.60368,14.35104 L40.60368,18.26928 L38.95776,18.26928 L38.95776,18.26928 Z M52.2072,18.26928 L52.2072,11.02032 L53.46,11.02032 L58.99392,15.2928 C59.39136,15.60384 59.68944,15.86736 59.89248,16.07904 C59.84064,15.40512 59.81904,14.9904 59.81904,14.83056 L59.81904,11.02032 L61.46496,11.02032 L61.46496,18.26928 L60.21648,18.26928 L54.432,13.78944 C54.19872,13.61232 53.9784,13.4136 53.77536,13.1976 C53.8272,13.66416 53.85312,14.05296 53.85312,14.35104 L53.85312,18.26928 L52.2072,18.26928 L52.2072,18.26928 Z M67.48272,15.37488 L70.92576,15.37488 L69.23232,12.42432 L67.48272,15.37488 Z M63.96192,18.26928 L68.41584,11.02032 L70.18704,11.02032 L74.70144,18.26928 L72.64512,18.26928 L71.69904,16.67952 L66.71376,16.67952 L65.79792,18.26928 L63.96192,18.26928 Z M83.8296,12.312 L78.88752,12.312 L78.88752,16.90848 L83.8296,16.90848 L83.8296,15.34896 L85.65696,15.69888 L85.65696,16.55856 C85.65696,17.23248 85.51872,17.68608 85.24656,17.91936 C84.9744,18.15264 84.46032,18.26928 83.70432,18.26928 L79.0128,18.26928 C78.26112,18.26928 77.74704,18.15264 77.47056,17.91936 C77.19408,17.68608 77.06016,17.23248 77.06016,16.55856 L77.06016,12.73536 C77.06016,12.05712 77.1984,11.60352 77.47056,11.37024 C77.74272,11.13696 78.2568,11.016 79.0128,11.016 L83.70864,11.016 C84.46032,11.016 84.9744,11.13264 85.25088,11.37024 C85.52304,11.60352 85.66128,12.05712 85.66128,12.73536 L85.66128,13.42224 L83.83392,13.69008 L83.83392,12.312 L83.8296,12.312 Z M89.44128,18.26928 L89.44128,11.02032 L91.27296,11.02032 L91.27296,16.90848 L97.17408,16.90848 L97.17408,18.26928 L89.44128,18.26928 Z M99.85248,18.26928 L99.85248,11.02032 L107.90496,11.02032 L107.90496,12.25584 L101.68416,12.25584 L101.68416,13.87152 L105.31296,13.87152 L105.31296,15.11136 L101.68416,15.11136 L101.68416,16.90848 L107.98272,16.90848 L107.98272,18.26928 L99.85248,18.26928 Z" id="Shape" fill="#025C43"></path>
            <path d="M23.11632,21.72096 L24.46416,21.72096 L23.79888,20.5632 L23.11632,21.72096 Z M21.73392,22.8528 L23.4792,20.01456 L24.1704,20.01456 L25.93728,22.8528 L25.12944,22.8528 L24.75792,22.23072 L22.8096,22.23072 L22.45104,22.8528 L21.73392,22.8528 Z M33.63984,20.52 L31.40208,20.52 L31.40208,22.32144 L33.63984,22.32144 L33.63984,21.6864 L32.46912,21.6864 L32.46912,21.20256 L34.33968,21.20256 L34.33968,22.1832 C34.33968,22.44672 34.28784,22.62384 34.17984,22.71888 C34.07184,22.8096 33.87312,22.85712 33.57504,22.85712 L31.4496,22.85712 C31.15584,22.85712 30.9528,22.81392 30.8448,22.71888 C30.7368,22.62816 30.68496,22.44672 30.68496,22.1832 L30.68496,20.68416 C30.68496,20.42064 30.7368,20.24352 30.8448,20.1528 C30.9528,20.06208 31.15152,20.01456 31.4496,20.01456 L33.57504,20.01456 C33.86016,20.01456 34.05888,20.05776 34.1712,20.14848 C34.28352,20.2392 34.33968,20.40768 34.33968,20.65824 L34.33968,20.72304 L33.63984,20.83968 L33.63984,20.52 L33.63984,20.52 Z M41.99472,20.4984 L40.38336,20.4984 L40.38336,21.2976 L41.99472,21.2976 C42.10704,21.2976 42.1848,21.28464 42.228,21.26304 C42.28848,21.22848 42.31872,21.16368 42.31872,21.06864 L42.31872,20.72304 C42.31872,20.628 42.28848,20.5632 42.228,20.52864 C42.1848,20.51136 42.10704,20.4984 41.99472,20.4984 M39.6792,22.8528 L39.6792,20.01456 L42.31872,20.01456 C42.78096,20.01456 43.00992,20.20032 43.00992,20.56752 L43.00992,21.2328 C43.00992,21.6 42.78096,21.78144 42.31872,21.78144 L41.91264,21.78144 L43.33392,22.8528 L42.30576,22.8528 L41.0616,21.78144 L40.37904,21.78144 L40.37904,22.8528 L39.6792,22.8528 Z M48.28896,20.01456 L49.00608,20.01456 L49.00608,22.8528 L48.28896,22.8528 L48.28896,20.01456 Z M56.98944,20.52 L55.05408,20.52 L55.05408,22.32144 L56.98944,22.32144 L56.98944,21.71232 L57.70656,21.85056 L57.70656,22.18752 C57.70656,22.45104 57.65472,22.62816 57.54672,22.7232 C57.43872,22.81392 57.24,22.86144 56.94624,22.86144 L55.10592,22.86144 C54.81216,22.86144 54.60912,22.81824 54.50112,22.7232 C54.39312,22.63248 54.34128,22.45104 54.34128,22.18752 L54.34128,20.68848 C54.34128,20.42496 54.39312,20.24784 54.50112,20.15712 C54.60912,20.0664 54.80784,20.01888 55.10592,20.01888 L56.94624,20.01888 C57.24,20.01888 57.44304,20.06208 57.54672,20.15712 C57.65472,20.24784 57.70656,20.42496 57.70656,20.68848 L57.70656,20.95632 L56.98944,21.06 L56.98944,20.52 Z M63.72432,20.01456 L63.72432,22.32144 L65.76768,22.32144 L65.76768,20.01456 L66.4848,20.01456 L66.4848,22.1832 C66.4848,22.44672 66.43296,22.62384 66.32496,22.71888 C66.21696,22.8096 66.01824,22.85712 65.72448,22.85712 L63.77616,22.85712 C63.4824,22.85712 63.27936,22.8096 63.17568,22.71888 C63.06768,22.62816 63.01584,22.45104 63.01584,22.1832 L63.01584,20.01456 L63.72432,20.01456 L63.72432,20.01456 Z M71.88048,22.8528 L71.88048,20.01456 L72.5976,20.01456 L72.5976,22.32144 L74.9088,22.32144 L74.9088,22.8528 L71.88048,22.8528 Z M81.21168,20.52 L81.21168,22.8528 L80.49456,22.8528 L80.49456,20.52 L79.08192,20.52 L79.08192,20.01456 L82.63296,20.01456 L82.63296,20.52 L81.21168,20.52 Z M88.05024,20.01456 L88.05024,22.32144 L90.0936,22.32144 L90.0936,20.01456 L90.81072,20.01456 L90.81072,22.1832 C90.81072,22.44672 90.75888,22.62384 90.65088,22.71888 C90.54288,22.81392 90.34416,22.85712 90.0504,22.85712 L88.10208,22.85712 C87.80832,22.85712 87.60528,22.8096 87.5016,22.71888 C87.3936,22.62816 87.33744,22.45104 87.33744,22.1832 L87.33744,20.01456 L88.05024,20.01456 L88.05024,20.01456 Z M98.52192,20.4984 L96.91056,20.4984 L96.91056,21.2976 L98.52192,21.2976 C98.63424,21.2976 98.712,21.28464 98.7552,21.26304 C98.81568,21.22848 98.84592,21.16368 98.84592,21.06864 L98.84592,20.72304 C98.84592,20.628 98.81568,20.5632 98.7552,20.52864 C98.712,20.51136 98.63424,20.4984 98.52192,20.4984 M96.2064,22.8528 L96.2064,20.01456 L98.84592,20.01456 C99.30816,20.01456 99.53712,20.20032 99.53712,20.56752 L99.53712,21.2328 C99.53712,21.6 99.30816,21.78144 98.84592,21.78144 L98.43984,21.78144 L99.86112,22.8528 L98.83296,22.8528 L97.59312,21.78144 L96.91056,21.78144 L96.91056,22.8528 L96.2064,22.8528 Z M104.81616,22.8528 L104.81616,20.01456 L107.96976,20.01456 L107.96976,20.4984 L105.53328,20.4984 L105.53328,21.12912 L106.95456,21.12912 L106.95456,21.61296 L105.53328,21.61296 L105.53328,22.31712 L108,22.31712 L108,22.8528 L104.81616,22.8528 Z" id="Shape" fill="#76AE99"></path>
        </g>
    </g>
</svg>