<?xml version="1.0" encoding="UTF-8"?>
<svg width="56px" height="37px" viewBox="0 0 56 37" version="1.1" xmlns="http://www.w3.org/2000/svg" xmlns:xlink="http://www.w3.org/1999/xlink">
    <title>united-states-department-of-agriculture</title>
    <g id="Page-3" stroke="none" stroke-width="1" fill="none" fill-rule="evenodd">
        <g id="united-states-department-of-agriculture" transform="translate(0.600000, 0.100000)" fill-rule="nonzero">
            <path d="M12.28608,1.47744 L12.23424,10.80864 C12.23424,14.74848 9.92736,16.22592 6.81696,16.22592 C4.12128,16.22592 0.69984,15.05952 0.69984,11.016 L0.69984,1.47744 C0.69984,0.95904 0.3888,0.648 6.39488462e-15,0.44064 L4.38048,0.44064 C4.06944,0.62208 3.68064,0.95904 3.68064,1.47744 L3.68064,11.06784 C3.68064,12.67488 4.25088,14.92992 7.23168,14.92992 C9.92736,14.92992 10.91232,13.11552 10.91232,10.86048 L10.91232,1.47744 C10.91232,0.95904 10.60128,0.648 10.26432,0.44064 L12.90816,0.44064 C12.54528,0.648 12.28608,0.95904 12.28608,1.47744 Z M18.48096,16.22592 C16.43328,16.22592 14.87808,15.52608 14.10048,15.13728 L13.97088,11.2752 C14.41152,12.88224 15.78528,15.08544 18.144,15.08544 C20.39904,15.08544 21.09888,13.40064 21.09888,12.312 C21.09888,10.13472 19.10304,9.79776 17.02944,8.70912 C14.904,7.54272 13.9968,6.32448 13.9968,4.58784 C13.9968,1.50336 16.89984,0.20736 18.94752,0.20736 C19.72512,0.20736 21.2544,0.3888 22.4208,1.11456 L22.47264,4.45824 C22.1616,3.24 20.8656,1.4256 18.6624,1.4256 C16.92576,1.4256 16.27776,2.64384 16.27776,3.60288 C16.27776,5.02848 17.2368,5.54688 19.36224,6.50592 C21.48768,7.54272 23.74272,8.24256 23.74272,11.45664 C23.82048,14.28192 21.30624,16.22592 18.48096,16.22592 Z M31.15584,16.04448 L25.29792,16.04448 C25.60896,15.78528 25.86816,15.47424 25.86816,15.00768 L25.86816,1.47744 C25.86816,0.95904 25.60896,0.648 25.29792,0.44064 L31.3632,0.44064 C38.90592,0.44064 40.38336,5.78016 40.38336,7.98336 C40.38336,11.97504 37.35072,16.04448 31.15584,16.04448 Z M30.89664,1.60704 C30.3264,1.60704 29.16,1.60704 28.7712,1.65888 L28.7712,14.80032 L30.63744,14.80032 C35.79552,14.80032 37.1952,11.32704 37.1952,7.98336 C37.22112,5.28768 35.61408,1.60704 30.89664,1.60704 Z M49.248,16.04448 C49.81824,15.73344 49.94784,15.39648 49.81824,14.87808 C49.7664,14.69664 49.1184,13.27104 48.4704,11.71584 L42.92352,11.71584 C42.22368,13.27104 41.62752,14.61888 41.62752,14.87808 C41.44608,15.39648 41.49792,15.70752 42.14592,16.04448 L38.98368,16.04448 C39.63168,15.60384 39.81312,15.34464 40.07232,14.87808 C40.51296,14.04864 46.55232,1.91846539e-14 46.55232,1.91846539e-14 C46.55232,1.91846539e-14 52.6176,14.04864 52.98048,14.87808 C53.23968,15.39648 53.36928,15.57792 54.14688,16.04448 L49.248,16.04448 Z M45.64512,4.95072 C45.64512,4.95072 44.08992,8.8128 43.39008,10.4976 L47.952,10.4976 C47.20032,8.65728 46.44864,6.79104 45.64512,4.95072 Z" id="Shape" fill="#0379BC"></path>
            <g id="Group" transform="translate(0.518400, 16.225920)" fill="#068944">
                <path d="M52.92864,0.07776 C52.92864,0.07776 19.6992,-0.75168 0.05184,9.74592 C0.05184,9.74592 20.91744,1.50336 52.92864,2.28096 L52.92864,0.07776 Z M0.05184,0.07776 C0.05184,0.07776 11.24928,0.1296 18.22176,2.77344 C18.22176,2.77344 3.93984,1.5552 0.05184,2.2032 C0.05184,2.2032 0.05184,0.07776 0.05184,0.07776 Z M0.05184,3.68064 C0.05184,3.68064 8.0352,3.3696 12.85632,3.81024 C12.85632,3.81024 1.19232,5.23584 0.05184,5.80608 C0.05184,5.80608 0.05184,3.68064 0.05184,3.68064 Z" id="Shape"></path>
                <path d="M47.45952,4.06944 L47.27808,4.06944 C37.60992,4.25088 17.39232,5.41728 0.07776,11.5344 L0.07776,18.86976 L53.0064,18.86976 L53.0064,4.06944 C52.98048,4.06944 50.9328,4.0176 47.45952,4.06944 Z" id="Path"></path>
            </g>
        </g>
    </g>
</svg>